<?xml version="1.0" encoding="UTF-8"?>
<svg width="13px" height="11px" viewBox="0 0 13 11" version="1.1" xmlns="http://www.w3.org/2000/svg" xmlns:xlink="http://www.w3.org/1999/xlink">
    <!-- Generator: sketchtool 51.2 (57519) - http://www.bohemiancoding.com/sketch -->
    <title>614113EC-FBA4-4D16-A1B5-47A5A7B78318</title>
    <desc>Created with sketchtool.</desc>
    <defs></defs>
    <g id="Page-1" stroke="none" stroke-width="1" fill="none" fill-rule="evenodd">
        <g id="Chili-Editor" transform="translate(-870.000000, -92.000000)">
            <g id="выравнивание-к-сторонам" transform="translate(859.000000, 80.000000)">
                <g id="1" transform="translate(11.000000, 12.000000)">
                    <rect id="Rectangle-44" fill="#FD861E" x="2" y="3" width="11" height="2" rx="1"></rect>
                    <rect id="Rectangle-44" fill="#FD861E" x="2" y="7" width="7" height="2" rx="1"></rect>
                    <rect id="Rectangle-44" fill="#E0E2E7" transform="translate(0.500000, 5.500000) rotate(-90.000000) translate(-0.500000, -5.500000) " x="-5" y="5" width="11" height="1" rx="0.5"></rect>
                </g>
            </g>
        </g>
    </g>
</svg>