<?xml version="1.0" encoding="UTF-8"?>
<svg width="16px" height="14px" viewBox="0 0 16 14" version="1.1" xmlns="http://www.w3.org/2000/svg" xmlns:xlink="http://www.w3.org/1999/xlink">
    <!-- Generator: sketchtool 51.2 (57519) - http://www.bohemiancoding.com/sketch -->
    <title>8B2EA8E7-235F-406A-AD11-A80A695C5459</title>
    <desc>Created with sketchtool.</desc>
    <defs></defs>
    <g id="Page-1" stroke="none" stroke-width="1" fill="none" fill-rule="evenodd">
        <g id="Chili-Editor" transform="translate(-909.000000, -136.000000)" fill="#FD861E">
            <g id="выравниваени-текста" transform="translate(859.000000, 125.000000)">
                <g id="cenral" transform="translate(50.000000, 11.000000)">
                    <rect id="Rectangle-44" x="3" y="0" width="11" height="2"></rect>
                    <rect id="Rectangle-44" x="0" y="4" width="16" height="2"></rect>
                    <rect id="Rectangle-44" x="3" y="8" width="11" height="2"></rect>
                    <rect id="Rectangle-44" x="0" y="12" width="16" height="2"></rect>
                </g>
            </g>
        </g>
    </g>
</svg>