<?xml version="1.0" encoding="UTF-8"?>
<svg width="13px" height="15px" viewBox="0 0 13 15" version="1.1" xmlns="http://www.w3.org/2000/svg" xmlns:xlink="http://www.w3.org/1999/xlink">
    <!-- Generator: sketchtool 51.2 (57519) - http://www.bohemiancoding.com/sketch -->
    <title>EB171F39-01BD-4770-B98C-F3763F2CE554</title>
    <desc>Created with sketchtool.</desc>
    <defs></defs>
    <g id="Page-1" stroke="none" stroke-width="1" fill="none" fill-rule="evenodd" opacity="0.851109601">
        <g id="Image" transform="translate(-1194.000000, -540.000000)" fill="#A0B3C3">
            <g id="Layers" transform="translate(1170.000000, 418.000000)">
                <g id="2">
                    <g transform="translate(11.000000, 111.000000)">
                        <path d="M19.9085641,22.2707693 C19.9085641,23.3143642 20.2633811,23.8361539 20.9730257,23.8361539 C21.0843425,23.8361539 21.2513152,23.8187609 21.4739487,23.7839744 C21.6965823,23.7491879 21.863555,23.7317949 21.9748718,23.7317949 C22.1557616,23.7317949 22.3122985,23.7978883 22.4444872,23.930077 C22.5766759,24.0622657 22.6427693,24.2188026 22.6427693,24.3996923 C22.6427693,24.8867033 22.3296955,25.1302052 21.7035385,25.1302052 L21.5783077,25.1302052 C21.5087347,25.1162906 21.4600344,25.1093334 21.4322052,25.1093334 L20.4094872,24.9632308 C20.0198784,24.9075724 19.5815751,24.8797436 19.0945641,24.8797436 C18.5658093,24.8797436 18.0996772,24.9075724 17.6961539,24.9632308 L16.6525641,25.1093334 C16.6108203,25.1093334 16.5621199,25.1162906 16.5064615,25.1302052 L16.360359,25.1302052 C15.7481166,25.1302052 15.442,24.8867033 15.442,24.3996923 C15.442,23.9544252 15.6646303,23.7317949 16.1098974,23.7317949 C16.2212142,23.7317949 16.3881869,23.7491879 16.6108205,23.7839744 C16.8334541,23.8187609 17.0004268,23.8361539 17.1117436,23.8361539 C17.8074736,23.8361539 18.1553333,23.3143642 18.1553333,22.2707693 L18.1553333,20.8097436 L18.1762051,18.9730257 L18.1762051,17.1989231 L18.1553333,13.7968205 C18.1553333,12.808884 17.6474581,12.3149231 16.6316923,12.3149231 L15.9846667,12.3149231 C14.9828155,12.3149231 14.4818974,12.8019268 14.4818974,13.7759487 C14.4818974,14.1238137 14.4888546,14.3603584 14.5027692,14.4855898 L14.5862564,15.2578462 C14.600171,15.3830776 14.6071282,15.5570074 14.6071282,15.779641 C14.6071282,16.6562608 14.3357976,17.0945641 13.7931282,17.0945641 C13.278288,17.0945641 13.0208718,16.7745331 13.0208718,16.1344616 C13.0208718,15.9535718 13.0347862,15.640498 13.0626154,15.1952308 C13.1043592,14.52733 13.1252308,14.1029411 13.1252308,13.9220513 C13.1252308,13.5741863 13.1113164,13.2124121 13.0834872,12.836718 C13.0278288,12.0992442 13,11.7861704 13,11.8974872 C13,11.313074 13.2643734,11.0208718 13.7931282,11.0208718 C13.9879326,11.0208718 14.4401503,11.0417434 15.1497949,11.0834872 C15.2193679,11.0834872 15.7898579,11.0974016 16.8612821,11.1252308 L19.2406667,11.1669744 C19.5189587,11.1669744 20.2633786,11.15306 21.4739487,11.1252308 C21.7383261,11.1252308 22.1905438,11.1043592 22.8306154,11.0626154 C23.401114,11.0208716 23.8463745,11 24.1664103,11 C24.8621403,11 25.21,11.285245 25.21,11.8557436 L25.21,11.8974872 C25.21,12.0366332 25.192607,12.2940494 25.1578206,12.6697436 C25.1230341,13.0454378 25.0847695,13.4489551 25.0430257,13.8803077 L25.0430257,14.1098974 C25.0430257,14.3186164 25.0638973,14.6456046 25.1056411,15.0908718 C25.1612995,15.675285 25.1891282,16.0370591 25.1891282,16.1762051 C25.1891282,16.7467037 24.9177976,17.0319487 24.3751282,17.0319487 C23.8463735,17.0319487 23.582,16.684089 23.582,15.988359 C23.582,15.7378962 23.6028716,15.3656862 23.6446154,14.871718 C23.6863592,14.3777497 23.7072308,14.0055397 23.7072308,13.7550769 C23.7072308,12.7949696 23.1576124,12.3149231 22.058359,12.3149231 L21.4739487,12.3149231 C20.9591086,12.3149231 20.5903772,12.4227596 20.3677436,12.6384359 C20.14511,12.8541122 20.0198805,13.2124078 19.9920513,13.7133333 L19.9294359,15.174359 L19.9085641,22.2707693 Z" id="T"></path>
                    </g>
                </g>
            </g>
        </g>
    </g>
</svg>